%YAML 1.1
%TAG !u! tag:unity3d.com,2011:
--- !u!1045 &1
EditorBuildSettings:
  m_ObjectHideFlags: 0
  serializedVersion: 2
  m_Scenes:
  - enabled: 1
    path: Assets/Scenes/MainMenu.unity
    guid: 60f45e5a628d8dc4e8aeffaf262efe17
  - enabled: 1
    path: Assets/Scenes/PlayScene.unity
    guid: 2cda990e2423bbf4892e6590ba056729
  m_configObjects:
    com.unity.input.settings: {fileID: 11400000, guid: e8da78e43bc03f0498fb57aa4c28d76d, type: 2}
